<svg width="500" height="620" viewBox="0 0 500 620" fill="none" xmlns="http://www.w3.org/2000/svg">
<path d="M247.822 0L500 620H343.121L247.822 385.634L154.175 620H0L247.822 0Z" fill="#CD1719"/>
</svg>
